{
  "vulnerabilities": [
    {
      "id": "52ae54b6ffd955ac3bdacc6d0e6e1c7e4a43c932",
      "category": "container_scanning",
      "message": "GHSA-6xh7-4v2w-36q6 in Microsoft.AspNetCore.Mvc.DataAnnotations-1.0.0",
      "description": "ASP.NET Core fails to properly validate web requests",
      "cve": "GHSA-6xh7-4v2w-36q6",
      "severity": "High",
      "confidence": "Unknown",
      "solution": "Upgrade Microsoft.AspNetCore.Mvc.DataAnnotations to 1.0.4",
      "scanner": {
        "id": "grype",
        "name": "grype"
      },
      "location": {
        "dependency": {
          "package": {
            "name": "Microsoft.AspNetCore.Mvc.DataAnnotations"
          },
          "version": "1.0.0"
        },
        "operating_system": "github:nuget",
        "image": "registry.gitlab.com/security-products/api-security:latest",
        "default_branch_image": "registry.example.com/group/project:latest"
      },
      "identifiers": [
        {
          "type": "ghsa",
          "name": "GHSA-6xh7-4v2w-36q6",
          "value": "GHSA-6xh7-4v2w-36q6",
          "url": "https://github.com/advisories/GHSA-6xh7-4v2w-36q6"
        }
      ],
      "links": [
        {
          "url": "https://github.com/advisories/GHSA-6xh7-4v2w-36q6"
        }
      ],
      "details": {
        "vulnerable_package": {
          "name": "Vulnerable Package",
          "type": "text",
          "value": "Microsoft.AspNetCore.Mvc.DataAnnotations:1.0.0"
        }
      }
    },
    {
      "id": "3cb79b57d227e172a96b76defddc88616a567dbe",
      "category": "container_scanning",
      "message": "GHSA-6xh7-4v2w-36q6 in Microsoft.AspNetCore.Mvc.ViewFeatures-1.0.0",
      "description": "ASP.NET Core fails to properly validate web requests",
      "cve": "GHSA-6xh7-4v2w-36q6",
      "severity": "High",
      "confidence": "Unknown",
      "solution": "Upgrade Microsoft.AspNetCore.Mvc.ViewFeatures to 1.0.4",
      "scanner": {
        "id": "grype",
        "name": "grype"
      },
      "location": {
        "dependency": {
          "package": {
            "name": "Microsoft.AspNetCore.Mvc.ViewFeatures"
          },
          "version": "1.0.0"
        },
        "operating_system": "github:nuget",
        "image": "registry.gitlab.com/security-products/api-security:latest",
        "default_branch_image": "registry.example.com/group/project:latest"
      },
      "identifiers": [
        {
          "type": "ghsa",
          "name": "GHSA-6xh7-4v2w-36q6",
          "value": "GHSA-6xh7-4v2w-36q6",
          "url": "https://github.com/advisories/GHSA-6xh7-4v2w-36q6"
        }
      ],
      "links": [
        {
          "url": "https://github.com/advisories/GHSA-6xh7-4v2w-36q6"
        }
      ],
      "details": {
        "vulnerable_package": {
          "name": "Vulnerable Package",
          "type": "text",
          "value": "Microsoft.AspNetCore.Mvc.ViewFeatures:1.0.0"
        }
      }
    },
    {
      "id": "8eb1b9e455074216247e63420d8338c9fda4e905",
      "category": "container_scanning",
      "message": "GHSA-7jgj-8wvc-jh57 in System.Net.Http-4.3.2",
      "description": ".NET Core Information Disclosure",
      "cve": "GHSA-7jgj-8wvc-jh57",
      "severity": "High",
      "confidence": "Unknown",
      "solution": "Upgrade System.Net.Http to 4.3.4",
      "scanner": {
        "id": "grype",
        "name": "grype"
      },
      "location": {
        "dependency": {
          "package": {
            "name": "System.Net.Http"
          },
          "version": "4.3.2"
        },
        "operating_system": "github:nuget",
        "image": "registry.gitlab.com/security-products/api-security:latest",
        "default_branch_image": "registry.example.com/group/project:latest"
      },
      "identifiers": [
        {
          "type": "ghsa",
          "name": "GHSA-7jgj-8wvc-jh57",
          "value": "GHSA-7jgj-8wvc-jh57",
          "url": "https://github.com/advisories/GHSA-7jgj-8wvc-jh57"
        }
      ],
      "links": [
        {
          "url": "https://github.com/advisories/GHSA-7jgj-8wvc-jh57"
        }
      ],
      "details": {
        "vulnerable_package": {
          "name": "Vulnerable Package",
          "type": "text",
          "value": "System.Net.Http:4.3.2"
        }
      }
    },
    {
      "id": "8835628069c11bd5f4048be5d1da51d4b2f16316",
      "category": "container_scanning",
      "message": "GHSA-7mfr-774f-w5r9 in Microsoft.NETCore.App-1.1.2",
      "description": "Improper Certificate Validation",
      "cve": "GHSA-7mfr-774f-w5r9",
      "severity": "High",
      "confidence": "Unknown",
      "solution": "Upgrade Microsoft.NETCore.App to 2.0.3",
      "scanner": {
        "id": "grype",
        "name": "grype"
      },
      "location": {
        "dependency": {
          "package": {
            "name": "Microsoft.NETCore.App"
          },
          "version": "1.1.2"
        },
        "operating_system": "github:nuget",
        "image": "registry.gitlab.com/security-products/api-security:latest",
        "default_branch_image": "registry.example.com/group/project:latest"
      },
      "identifiers": [
        {
          "type": "ghsa",
          "name": "GHSA-7mfr-774f-w5r9",
          "value": "GHSA-7mfr-774f-w5r9",
          "url": "https://github.com/advisories/GHSA-7mfr-774f-w5r9"
        }
      ],
      "links": [
        {
          "url": "https://github.com/advisories/GHSA-7mfr-774f-w5r9"
        }
      ],
      "details": {
        "vulnerable_package": {
          "name": "Vulnerable Package",
          "type": "text",
          "value": "Microsoft.NETCore.App:1.1.2"
        }
      }
    },
    {
      "id": "4ec99105ba38ab9c026c57b4c877cc19e9cf7cdc",
      "category": "container_scanning",
      "message": "GHSA-ch6p-4jcm-h8vh in Microsoft.AspNetCore.Mvc.DataAnnotations-1.0.0",
      "description": "Moderate severity vulnerability that affects Microsoft.AspNetCore.Mvc and Microsoft.AspNetCore.Mvc.Core",
      "cve": "GHSA-ch6p-4jcm-h8vh",
      "severity": "Medium",
      "confidence": "Unknown",
      "solution": "Upgrade Microsoft.AspNetCore.Mvc.DataAnnotations to 1.0.4",
      "scanner": {
        "id": "grype",
        "name": "grype"
      },
      "location": {
        "dependency": {
          "package": {
            "name": "Microsoft.AspNetCore.Mvc.DataAnnotations"
          },
          "version": "1.0.0"
        },
        "operating_system": "github:nuget",
        "image": "registry.gitlab.com/security-products/api-security:latest",
        "default_branch_image": "registry.example.com/group/project:latest"
      },
      "identifiers": [
        {
          "type": "ghsa",
          "name": "GHSA-ch6p-4jcm-h8vh",
          "value": "GHSA-ch6p-4jcm-h8vh",
          "url": "https://github.com/advisories/GHSA-ch6p-4jcm-h8vh"
        }
      ],
      "links": [
        {
          "url": "https://github.com/advisories/GHSA-ch6p-4jcm-h8vh"
        }
      ],
      "details": {
        "vulnerable_package": {
          "name": "Vulnerable Package",
          "type": "text",
          "value": "Microsoft.AspNetCore.Mvc.DataAnnotations:1.0.0"
        }
      }
    },
    {
      "id": "0b5fd0fcf8b9375e9e260b89cf21ef58cd3899ac",
      "category": "container_scanning",
      "message": "GHSA-ch6p-4jcm-h8vh in Microsoft.AspNetCore.Mvc.ViewFeatures-1.0.0",
      "description": "Moderate severity vulnerability that affects Microsoft.AspNetCore.Mvc and Microsoft.AspNetCore.Mvc.Core",
      "cve": "GHSA-ch6p-4jcm-h8vh",
      "severity": "Medium",
      "confidence": "Unknown",
      "solution": "Upgrade Microsoft.AspNetCore.Mvc.ViewFeatures to 1.0.4",
      "scanner": {
        "id": "grype",
        "name": "grype"
      },
      "location": {
        "dependency": {
          "package": {
            "name": "Microsoft.AspNetCore.Mvc.ViewFeatures"
          },
          "version": "1.0.0"
        },
        "operating_system": "github:nuget",
        "image": "registry.gitlab.com/security-products/api-security:latest",
        "default_branch_image": "registry.example.com/group/project:latest"
      },
      "identifiers": [
        {
          "type": "ghsa",
          "name": "GHSA-ch6p-4jcm-h8vh",
          "value": "GHSA-ch6p-4jcm-h8vh",
          "url": "https://github.com/advisories/GHSA-ch6p-4jcm-h8vh"
        }
      ],
      "links": [
        {
          "url": "https://github.com/advisories/GHSA-ch6p-4jcm-h8vh"
        }
      ],
      "details": {
        "vulnerable_package": {
          "name": "Vulnerable Package",
          "type": "text",
          "value": "Microsoft.AspNetCore.Mvc.ViewFeatures:1.0.0"
        }
      }
    },
    {
      "id": "872965ad05ee69e2d3e6e12a8021897178608439",
      "category": "container_scanning",
      "message": "GHSA-cmhx-cq75-c4mj in System.Text.RegularExpressions-4.3.0",
      "description": "Regular Expression Denial of Service (ReDoS)",
      "cve": "GHSA-cmhx-cq75-c4mj",
      "severity": "Medium",
      "confidence": "Unknown",
      "solution": "Upgrade System.Text.RegularExpressions to 4.3.1",
      "scanner": {
        "id": "grype",
        "name": "grype"
      },
      "location": {
        "dependency": {
          "package": {
            "name": "System.Text.RegularExpressions"
          },
          "version": "4.3.0"
        },
        "operating_system": "github:nuget",
        "image": "registry.gitlab.com/security-products/api-security:latest",
        "default_branch_image": "registry.example.com/group/project:latest"
      },
      "identifiers": [
        {
          "type": "ghsa",
          "name": "GHSA-cmhx-cq75-c4mj",
          "value": "GHSA-cmhx-cq75-c4mj",
          "url": "https://github.com/advisories/GHSA-cmhx-cq75-c4mj"
        }
      ],
      "links": [
        {
          "url": "https://github.com/advisories/GHSA-cmhx-cq75-c4mj"
        }
      ],
      "details": {
        "vulnerable_package": {
          "name": "Vulnerable Package",
          "type": "text",
          "value": "System.Text.RegularExpressions:4.3.0"
        }
      }
    },
    {
      "id": "5ebe54106b7652d6f4d56422e467a098461926d2",
      "category": "container_scanning",
      "message": "GHSA-ghhp-997w-qr28 in System.Text.Encodings.Web-4.4.0",
      "description": ".NET Core Remote Code Execution Vulnerability",
      "cve": "GHSA-ghhp-997w-qr28",
      "severity": "Critical",
      "confidence": "Unknown",
      "solution": "Upgrade System.Text.Encodings.Web to 4.5.1",
      "scanner": {
        "id": "grype",
        "name": "grype"
      },
      "location": {
        "dependency": {
          "package": {
            "name": "System.Text.Encodings.Web"
          },
          "version": "4.4.0"
        },
        "operating_system": "github:nuget",
        "image": "registry.gitlab.com/security-products/api-security:latest",
        "default_branch_image": "registry.example.com/group/project:latest"
      },
      "identifiers": [
        {
          "type": "ghsa",
          "name": "GHSA-ghhp-997w-qr28",
          "value": "GHSA-ghhp-997w-qr28",
          "url": "https://github.com/advisories/GHSA-ghhp-997w-qr28"
        }
      ],
      "links": [
        {
          "url": "https://github.com/advisories/GHSA-ghhp-997w-qr28"
        }
      ],
      "details": {
        "vulnerable_package": {
          "name": "Vulnerable Package",
          "type": "text",
          "value": "System.Text.Encodings.Web:4.4.0"
        }
      }
    },
    {
      "id": "0eae5670abb5381542f5965b9a2b7b5d23b9ea5f",
      "category": "container_scanning",
      "message": "GHSA-j8f4-2w4p-mhjc in Microsoft.AspNetCore.Mvc.DataAnnotations-1.0.0",
      "description": "Moderate severity vulnerability that affects Microsoft.AspNetCore.Mvc",
      "cve": "GHSA-j8f4-2w4p-mhjc",
      "severity": "Medium",
      "confidence": "Unknown",
      "solution": "Upgrade Microsoft.AspNetCore.Mvc.DataAnnotations to 1.0.4",
      "scanner": {
        "id": "grype",
        "name": "grype"
      },
      "location": {
        "dependency": {
          "package": {
            "name": "Microsoft.AspNetCore.Mvc.DataAnnotations"
          },
          "version": "1.0.0"
        },
        "operating_system": "github:nuget",
        "image": "registry.gitlab.com/security-products/api-security:latest",
        "default_branch_image": "registry.example.com/group/project:latest"
      },
      "identifiers": [
        {
          "type": "ghsa",
          "name": "GHSA-j8f4-2w4p-mhjc",
          "value": "GHSA-j8f4-2w4p-mhjc",
          "url": "https://github.com/advisories/GHSA-j8f4-2w4p-mhjc"
        }
      ],
      "links": [
        {
          "url": "https://github.com/advisories/GHSA-j8f4-2w4p-mhjc"
        }
      ],
      "details": {
        "vulnerable_package": {
          "name": "Vulnerable Package",
          "type": "text",
          "value": "Microsoft.AspNetCore.Mvc.DataAnnotations:1.0.0"
        }
      }
    },
    {
      "id": "3c5bc07278164fb46c9976c1b90cffceb77b800d",
      "category": "container_scanning",
      "message": "GHSA-j8f4-2w4p-mhjc in Microsoft.AspNetCore.Mvc.ViewFeatures-1.0.0",
      "description": "Moderate severity vulnerability that affects Microsoft.AspNetCore.Mvc",
      "cve": "GHSA-j8f4-2w4p-mhjc",
      "severity": "Medium",
      "confidence": "Unknown",
      "solution": "Upgrade Microsoft.AspNetCore.Mvc.ViewFeatures to 1.0.4",
      "scanner": {
        "id": "grype",
        "name": "grype"
      },
      "location": {
        "dependency": {
          "package": {
            "name": "Microsoft.AspNetCore.Mvc.ViewFeatures"
          },
          "version": "1.0.0"
        },
        "operating_system": "github:nuget",
        "image": "registry.gitlab.com/security-products/api-security:latest",
        "default_branch_image": "registry.example.com/group/project:latest"
      },
      "identifiers": [
        {
          "type": "ghsa",
          "name": "GHSA-j8f4-2w4p-mhjc",
          "value": "GHSA-j8f4-2w4p-mhjc",
          "url": "https://github.com/advisories/GHSA-j8f4-2w4p-mhjc"
        }
      ],
      "links": [
        {
          "url": "https://github.com/advisories/GHSA-j8f4-2w4p-mhjc"
        }
      ],
      "details": {
        "vulnerable_package": {
          "name": "Vulnerable Package",
          "type": "text",
          "value": "Microsoft.AspNetCore.Mvc.ViewFeatures:1.0.0"
        }
      }
    },
    {
      "id": "5b05abb4c717bee09d1159056956fe9840ad97a9",
      "category": "container_scanning",
      "message": "GHSA-qhqf-ghgh-x2m4 in Microsoft.AspNetCore.Mvc.DataAnnotations-1.0.0",
      "description": "High severity vulnerability that affects Microsoft.AspNetCore.Mvc",
      "cve": "GHSA-qhqf-ghgh-x2m4",
      "severity": "High",
      "confidence": "Unknown",
      "solution": "Upgrade Microsoft.AspNetCore.Mvc.DataAnnotations to 1.0.4",
      "scanner": {
        "id": "grype",
        "name": "grype"
      },
      "location": {
        "dependency": {
          "package": {
            "name": "Microsoft.AspNetCore.Mvc.DataAnnotations"
          },
          "version": "1.0.0"
        },
        "operating_system": "github:nuget",
        "image": "registry.gitlab.com/security-products/api-security:latest",
        "default_branch_image": "registry.example.com/group/project:latest"
      },
      "identifiers": [
        {
          "type": "ghsa",
          "name": "GHSA-qhqf-ghgh-x2m4",
          "value": "GHSA-qhqf-ghgh-x2m4",
          "url": "https://github.com/advisories/GHSA-qhqf-ghgh-x2m4"
        }
      ],
      "links": [
        {
          "url": "https://github.com/advisories/GHSA-qhqf-ghgh-x2m4"
        }
      ],
      "details": {
        "vulnerable_package": {
          "name": "Vulnerable Package",
          "type": "text",
          "value": "Microsoft.AspNetCore.Mvc.DataAnnotations:1.0.0"
        }
      }
    },
    {
      "id": "ef9dd9e8579a94a61e3a2d49258e75a2129897eb",
      "category": "container_scanning",
      "message": "GHSA-qhqf-ghgh-x2m4 in Microsoft.AspNetCore.Mvc.ViewFeatures-1.0.0",
      "description": "High severity vulnerability that affects Microsoft.AspNetCore.Mvc",
      "cve": "GHSA-qhqf-ghgh-x2m4",
      "severity": "High",
      "confidence": "Unknown",
      "solution": "Upgrade Microsoft.AspNetCore.Mvc.ViewFeatures to 1.0.4",
      "scanner": {
        "id": "grype",
        "name": "grype"
      },
      "location": {
        "dependency": {
          "package": {
            "name": "Microsoft.AspNetCore.Mvc.ViewFeatures"
          },
          "version": "1.0.0"
        },
        "operating_system": "github:nuget",
        "image": "registry.gitlab.com/security-products/api-security:latest",
        "default_branch_image": "registry.example.com/group/project:latest"
      },
      "identifiers": [
        {
          "type": "ghsa",
          "name": "GHSA-qhqf-ghgh-x2m4",
          "value": "GHSA-qhqf-ghgh-x2m4",
          "url": "https://github.com/advisories/GHSA-qhqf-ghgh-x2m4"
        }
      ],
      "links": [
        {
          "url": "https://github.com/advisories/GHSA-qhqf-ghgh-x2m4"
        }
      ],
      "details": {
        "vulnerable_package": {
          "name": "Vulnerable Package",
          "type": "text",
          "value": "Microsoft.AspNetCore.Mvc.ViewFeatures:1.0.0"
        }
      }
    }
  ],
  "remediations": [],
  "scan": {
    "scanner": {
      "id": "grype",
      "name": "Grype",
      "url": "https://github.com/anchore/grype",
      "vendor": {
        "name": "GitLab"
      },
      "version": "0.37.0"
    },
    "analyzer": {
      "id": "gcs",
      "name": "GitLab Container Scanning",
      "vendor": {
        "name": "GitLab"
      },
      "version": "6.7.1"
    },
    "type": "container_scanning",
    "start_time": "2021-09-15T08:36:08",
    "end_time": "2021-09-15T08:36:25",
    "status": "success"
  },
  "version": "14.1.2"
}
